[
  {
    "id": "3r532rFDSF3wr53w",
    "nome": "AlgOS",
    "descricao": "Projeto da Paipe desenvolvido para solucionar seus problemas, o que você precisa está aqui. Tecnologia e inovação!"
  },
  {
    "id": "gsegessegwr53w",
    "nome": "Ficha do País",
    "descricao": "Projeto da Paipe desenvolvido para solucionar seus problemas, o que você precisa está aqui. Tecnologia e inovação!"
  },
  {
    "id": "gkjgyyyDSF3wr53w",
    "nome": "FollowUp",
    "descricao": "Projeto da Paipe desenvolvido para solucionar seus problemas, o que você precisa está aqui. Tecnologia e inovação!"
  },
  {
    "id": "vsegsgDSF3wr53w",
    "nome": "TaskOS",
    "descricao": "Projeto da Paipe desenvolvido para solucionar seus problemas, o que você precisa está aqui. Tecnologia e inovação!"
  },
  {
    "id": "ukhbrFDSF3wr53w",
    "nome": "BRWallet",
    "descricao": "Projeto da Paipe desenvolvido para solucionar seus problemas, o que você precisa está aqui. Tecnologia e inovação!"
  },
  {
    "id": "3r532rfsegsegsew",
    "nome": "BRFácil",
    "descricao": "Projeto da Paipe desenvolvido para solucionar seus problemas, o que você precisa está aqui. Tecnologia e inovação!"
  },
  {
    "id": "3rgsesrhssSF3wr53w",
    "nome": "Coletor",
    "descricao": "Projeto da Paipe desenvolvido para solucionar seus problemas, o que você precisa está aqui. Tecnologia e inovação!"
  },
  {
    "id": "3r532segssh3wr53w",
    "nome": "Linha Temporal",
    "descricao": "Projeto da Paipe desenvolvido para solucionar seus problemas, o que você precisa está aqui. Tecnologia e inovação!"
  }
]
